{
    "KPlugin": {
        "Description": "Frame Buffer plugins for KRfb",
        "Description[ca@valencia]": "Connectors de «Frame Buffer» per al KRfb",
        "Description[ca]": "Connectors de «Frame Buffer» per al KRfb",
        "Description[cs]": "Moduly Frame bufferu pro KRfb",
        "Description[da]": "Framebuffer-plugins til KRfb",
        "Description[de]": "Framebuffer-Module für KRfb",
        "Description[el]": "Πρόσθετα μνήμης ανανέωσης βίντεο καρέ για το KRfb",
        "Description[en_GB]": "Frame Buffer plugins for KRfb",
        "Description[es]": "Complementos de framebuffer para KRfb",
        "Description[et]": "KRfb kaadripuhvri pluginad",
        "Description[eu]": "KRfb-rako «Frame Buffer» pluginak",
        "Description[fi]": "KRfb:n kehyspuskuriliitännäinen",
        "Description[fr]": "Modules de tampons d'image pour KRfb",
        "Description[gl]": "Complemento de búfer de fotograma para KRfb",
        "Description[ia]": "Plug-ins de Frame Buffer per KRfb",
        "Description[id]": "Plugin Frame Buffer untuk KRfb",
        "Description[it]": "Estensioni del framebuffer per KRfb",
        "Description[ko]": "KRfb 프레임버퍼 플러그인",
        "Description[nl]": "Framebuffer-plugins voor KRfb",
        "Description[nn]": "Biletbuffer-tillegg KRfb",
        "Description[pl]": "Wtyczki buforów ramek dla KRfb",
        "Description[pt]": "'Plugins' do 'Framebuffer' para o KRfb",
        "Description[pt_BR]": "Plugins de framebuffers para o KRfb",
        "Description[ru]": "Модули буфера кадров для KRfb",
        "Description[sk]": "Frame Buffer modul pre KRfb",
        "Description[sl]": "Vtičniki vmesnika medpomnilnika za KRfb",
        "Description[sr@ijekavian]": "Прикључци кадробафера за КРФБ",
        "Description[sr@ijekavianlatin]": "Priključci kadrobafera za KRFB",
        "Description[sr@latin]": "Priključci kadrobafera za KRFB",
        "Description[sr]": "Прикључци кадробафера за КРФБ",
        "Description[sv]": "Insticksprogram med rambuffert för Krfb",
        "Description[tr]": "KRfb için Çerçeve Tamponu eklentileri",
        "Description[uk]": "Додатки буфера кадрів для KRfb",
        "Description[x-test]": "xxFrame Buffer plugins for KRfbxx",
        "Description[zh_CN]": "KRfb 的帧缓冲插件",
        "Description[zh_TW]": "KRfb 的 Frame Buffer 外掛程式"
    },
    "X-KDE-ServiceType": "krfb/framebuffer"
}
